
[
  {
    "date": "2017-10-24 07:00 PM",
    "patient": "jamshed",
    "doctor": "Dr. Sayyad Ahmad Shakeel",
    "address": "Punjab Clinic, Near Wapda Chowk, Pia Society , Lahore",
    "status": "pending",
    "change":"  <form action='https://medscure-mudassar-becreative.c9users.io/hayaatAdmin/appointments/change_status' method='POST'><input type='hidden' name='appoinment' value='42'><div class='row'><div class='col-xs-9'><select class='form-control' name='status' id='appoinment-change-status'><option value='1' selected=''>Pending</option><option value='2'>Approved</option><option value='3'>Done</option><option value='5'>Reject</option><option value='0'>Archive</option></select></div><div class='col-xs-3'><button type='submit' class='btn btn-xs btn-primary' style='height: 38px;padding: 0 8px;margin-left: -10px;'><i class='fa fa-paper-plane-o' aria-hidden='true'></i></button></div></div></form>"
  },
  {
    "date": "2017-10-24 07:00 PM",
    "patient": "jamshed",
    "doctor": "Dr. Sayyad Ahmad Shakeel",
    "address": "Punjab Clinic, Near Wapda Chowk, Pia Society , Lahore",
    "status": "pending"
  },
  {
    "date": "2017-10-24 07:00 PM",
    "patient": "jamshed",
    "doctor": "Dr. Sayyad Ahmad Shakeel",
    "address": "Punjab Clinic, Near Wapda Chowk, Pia Society , Lahore",
    "status": "pending"
  },
  {
    "date": "2017-10-24 07:00 PM",
    "patient": "jamshed",
    "doctor": "Dr. Sayyad Ahmad Shakeel",
    "address": "Punjab Clinic, Near Wapda Chowk, Pia Society , Lahore",
    "status": "pending"
  },




  {
    "date": "2017-10-24 07:00 PM",
    "patient": "jamshed",
    "doctor": "Dr. Sayyad Ahmad Shakeel",
    "address": "Punjab Clinic, Near Wapda Chowk, Pia Society , Lahore",
    "status": "pending"
  },




  {
    "date": "2017-10-24 07:00 PM",
    "patient": "jamshed",
    "doctor": "Dr. Sayyad Ahmad Shakeel",
    "address": "Punjab Clinic, Near Wapda Chowk, Pia Society , Lahore",
    "status": "pending"
  },
  {
    "date": "2017-10-24 07:00 PM",
    "patient": "jamshed",
    "doctor": "Dr. Sayyad Ahmad Shakeel",
    "address": "Punjab Clinic, Near Wapda Chowk, Pia Society , Lahore",
    "status": "pending"
  },
  {
    "date": "2017-10-24 07:00 PM",
    "patient": "jamshed",
    "doctor": "Dr. Sayyad Ahmad Shakeel",
    "address": "Punjab Clinic, Near Wapda Chowk, Pia Society , Lahore",
    "status": "pending"
  },
  {
    "date": "2017-10-24 07:00 PM",
    "patient": "jamshed",
    "doctor": "Dr. Sayyad Ahmad Shakeel",
    "address": "Punjab Clinic, Near Wapda Chowk, Pia Society , Lahore",
    "status": "pending"
  },
  {
    "date": "2017-10-24 07:00 PM",
    "patient": "jamshed",
    "doctor": "Dr. Sayyad Ahmad Shakeel",
    "address": "Punjab Clinic, Near Wapda Chowk, Pia Society , Lahore",
    "status": "pending"
  },
  {
    "date": "2017-10-24 07:00 PM",
    "patient": "jamshed",
    "doctor": "Dr. Sayyad Ahmad Shakeel",
    "address": "Punjab Clinic, Near Wapda Chowk, Pia Society , Lahore",
    "status": "pending"
  },
  {
    "date": "2017-10-24 07:00 PM",
    "patient": "jamshed",
    "doctor": "Dr. Sayyad Ahmad Shakeel",
    "address": "Punjab Clinic, Near Wapda Chowk, Pia Society , Lahore",
    "status": "pending"
  },
  {
    "date": "2017-10-24 07:00 PM",
    "patient": "jamshed",
    "doctor": "Dr. Sayyad Ahmad Shakeel",
    "address": "Punjab Clinic, Near Wapda Chowk, Pia Society , Lahore",
    "status": "pending"
  },
  {
    "date": "2017-10-24 07:00 PM",
    "patient": "jamshed",
    "doctor": "Dr. Sayyad Ahmad Shakeel",
    "address": "Punjab Clinic, Near Wapda Chowk, Pia Society , Lahore",
    "status": "pending"
  },
  {
    "date": "2017-10-24 07:00 PM",
    "patient": "jamshed",
    "doctor": "Dr. Sayyad Ahmad Shakeel",
    "address": "Punjab Clinic, Near Wapda Chowk, Pia Society , Lahore",
    "status": "pending"
  },
  {
    "date": "2017-10-24 07:00 PM",
    "patient": "jamshed",
    "doctor": "Dr. Sayyad Ahmad Shakeel",
    "address": "Punjab Clinic, Near Wapda Chowk, Pia Society , Lahore",
    "status": "pending"
  },
  {
    "date": "2017-10-24 07:00 PM",
    "patient": "jamshed",
    "doctor": "Dr. Sayyad Ahmad Shakeel",
    "address": "Punjab Clinic, Near Wapda Chowk, Pia Society , Lahore",
    "status": "pending"
  },
  {
    "date": "2017-10-24 07:00 PM",
    "patient": "jamshed",
    "doctor": "Dr. Sayyad Ahmad Shakeel",
    "address": "Punjab Clinic, Near Wapda Chowk, Pia Society , Lahore",
    "status": "pending"
  },
  {
    "date": "2017-10-24 07:00 PM",
    "patient": "jamshed",
    "doctor": "Dr. Sayyad Ahmad Shakeel",
    "address": "Punjab Clinic, Near Wapda Chowk, Pia Society , Lahore",
    "status": "pending"
  },
  {
    "date": "2017-10-24 07:00 PM",
    "patient": "jamshed",
    "doctor": "Dr. Sayyad Ahmad Shakeel",
    "address": "Punjab Clinic, Near Wapda Chowk, Pia Society , Lahore",
    "status": "pending"
  },
  {
    "date": "2017-10-24 07:00 PM",
    "patient": "jamshed",
    "doctor": "Dr. Sayyad Ahmad Shakeel",
    "address": "Punjab Clinic, Near Wapda Chowk, Pia Society , Lahore",
    "status": "pending"
  },
  {
    "date": "2017-10-24 07:00 PM",
    "patient": "jamshed",
    "doctor": "Dr. Sayyad Ahmad Shakeel",
    "address": "Punjab Clinic, Near Wapda Chowk, Pia Society , Lahore",
    "status": "pending"
  },
  {
    "date": "2017-10-24 07:00 PM",
    "patient": "jamshed",
    "doctor": "Dr. Sayyad Ahmad Shakeel",
    "address": "Punjab Clinic, Near Wapda Chowk, Pia Society , Lahore",
    "status": "pending"
  }
]
